…
    ## ── Column specification ────────────────────────────────────────────────────────
    ## Delimiter: ","
    ## chr (6): First Name, Last Name, Email Address, Company, Position, Connected On

    ## 
    ## ℹ Use `spec()` to retrieve the full column specification for this data.
    ## ℹ Specify the column types or set `show_col_types = FALSE` to quiet this message.

``` r
df <- clean_names(df)
df
```

    ## # A tibble: 76 × 6
    ##    first_name last_name             email_address company  position connected_on
    ##    <chr>      <chr>                 <chr>         <chr>    <chr>    <chr>       
    ##  1 Rayyan     mohammad              <NA>          Scotiab… Data An… 5-May-22    
    ##  2 Gautami    Edara                 <NA>          McKesson Busines… 3-May-22    
    ##  3 suresh     kumar                 <NA>          Relianc… Trainin… 3-May-22    
    ##  4 Franck     Benichou, M.A., M.Sc. <NA>          Intact   Data Sc… 20-Apr-22   
    ##  5 Vahid      Hedley                <NA>          Novartis Analyti… 15-Apr-22   
    ##  6 Rozita     Jalili                <NA>          digifle… Senior … 15-Apr-22   
    ##  7 Ananya     Nair                  <NA>          CN       Data Go… 15-Apr-22   
    ##  8 Nima       Rafizadeh             <NA>          HEC Mon… Graduat… 2-Apr-22    
    ##  9 Fahid      Hasin                 <NA>          Standar… Payment… 30-Mar-22   
    ## 10 Antoine    Payrar                <NA>          Nationa… Digital… 30-Mar-22   
    ## # … with 66 more rows
…
